{
  "project_info": {
    "project_number": "281455855824",
    "firebase_url": "https://wotzofmob-98e30-default-rtdb.firebaseio.com",
    "project_id": "wotzofmob-98e30",
    "storage_bucket": "wotzofmob-98e30.appspot.com"
  },
  "client": [
    {
      "client_info": {
        "mobilesdk_app_id": "1:281455855824:android:a88eb9aff0e11444b276d5",
        "android_client_info": {
          "package_name": "com.coupon"
        }
      },
      "oauth_client": [
        {
          "client_id": "281455855824-f41l2j230dfe22qhoa82f1pn464ihabj.apps.googleusercontent.com",
          "client_type": 1,
          "android_info": {
            "package_name": "com.coupon",
            "certificate_hash": "94cdb8057538f48960881036ba399c76bb378810"
          }
        },
        {
          "client_id": "281455855824-6rpqubrf67tqiv1n78hp0b1bf2qmutri.apps.googleusercontent.com",
          "client_type": 3
        }
      ],
      "api_key": [
        {
          "current_key": "AIzaSyA3KAV3rjd95ThjIAKWicMp2Fg_YijV1Vc"
        }
      ],
      "services": {
        "appinvite_service": {
          "other_platform_oauth_client": [
            {
              "client_id": "281455855824-6rpqubrf67tqiv1n78hp0b1bf2qmutri.apps.googleusercontent.com",
              "client_type": 3
            }
          ]
        }
      }
    },
    {
      "client_info": {
        "mobilesdk_app_id": "1:281455855824:android:4766c8ae203fa72fb276d5",
        "android_client_info": {
          "package_name": "com.example.parcel_driverapp"
        }
      },
      "oauth_client": [
        {
          "client_id": "281455855824-6rpqubrf67tqiv1n78hp0b1bf2qmutri.apps.googleusercontent.com",
          "client_type": 3
        }
      ],
      "api_key": [
        {
          "current_key": "AIzaSyA3KAV3rjd95ThjIAKWicMp2Fg_YijV1Vc"
        }
      ],
      "services": {
        "appinvite_service": {
          "other_platform_oauth_client": [
            {
              "client_id": "281455855824-6rpqubrf67tqiv1n78hp0b1bf2qmutri.apps.googleusercontent.com",
              "client_type": 3
            }
          ]
        }
      }
    },
    {
      "client_info": {
        "mobilesdk_app_id": "1:281455855824:android:5880b1d4f12996f3b276d5",
        "android_client_info": {
          "package_name": "com.meattend"
        }
      },
      "oauth_client": [
        {
          "client_id": "281455855824-6rpqubrf67tqiv1n78hp0b1bf2qmutri.apps.googleusercontent.com",
          "client_type": 3
        }
      ],
      "api_key": [
        {
          "current_key": "AIzaSyA3KAV3rjd95ThjIAKWicMp2Fg_YijV1Vc"
        }
      ],
      "services": {
        "appinvite_service": {
          "other_platform_oauth_client": [
            {
              "client_id": "281455855824-6rpqubrf67tqiv1n78hp0b1bf2qmutri.apps.googleusercontent.com",
              "client_type": 3
            }
          ]
        }
      }
    },
    {
      "client_info": {
        "mobilesdk_app_id": "1:281455855824:android:0000840dfc499b82b276d5",
        "android_client_info": {
          "package_name": "com.wotzof"
        }
      },
      "oauth_client": [
        {
          "client_id": "281455855824-4tisl5a156t5d3q5ockre8rpsi7jvf5u.apps.googleusercontent.com",
          "client_type": 1,
          "android_info": {
            "package_name": "com.wotzof",
            "certificate_hash": "5e8f16062ea3cd2c4a0d547876baa6f38cabf625"
          }
        },
        {
          "client_id": "281455855824-h7aof8knhqrt2sl3qc0fp3nbnfn1faju.apps.googleusercontent.com",
          "client_type": 1,
          "android_info": {
            "package_name": "com.wotzof",
            "certificate_hash": "5f3f5eb2932be92f7fc3185dc0e439cc22bab6ca"
          }
        },
        {
          "client_id": "281455855824-rr1bhnkfneqpqs94n7pu0j1gs89727e0.apps.googleusercontent.com",
          "client_type": 1,
          "android_info": {
            "package_name": "com.wotzof",
            "certificate_hash": "94cdb8057538f48960881036ba399c76bb378810"
          }
        },
        {
          "client_id": "281455855824-6rpqubrf67tqiv1n78hp0b1bf2qmutri.apps.googleusercontent.com",
          "client_type": 3
        }
      ],
      "api_key": [
        {
          "current_key": "AIzaSyA3KAV3rjd95ThjIAKWicMp2Fg_YijV1Vc"
        }
      ],
      "services": {
        "appinvite_service": {
          "other_platform_oauth_client": [
            {
              "client_id": "281455855824-6rpqubrf67tqiv1n78hp0b1bf2qmutri.apps.googleusercontent.com",
              "client_type": 3
            }
          ]
        }
      }
    }
  ],
  "configuration_version": "1"
}